http://technikinformatyk.pl/kursy/kurs/html-css/lekcja/html-struktura-dokumentu/
===============================================================================
https://egzamin-ee09.blogspot.com/2020/09/arkusz-ee09-01-2006-sg.html
===============================================================================