SELECT `id`,`dataWyjazdu`,`cel`,`cena`FROM `wycieczki` WHERE `dostepna` = '1' 
==============================================================================
SELECT `nazwaPliku`, `podpis` FROM `zdjecia` ORDER BY `podpis` ASC 
=====================================================================
SELECT zdjecia.nazwaPliku,wycieczki.`cel` FROM wycieczki LEFT JOIN zdjecia ON wycieczki.`zdjencia_id`=zdjecia.id WHERE cena>1000 
==========================================================================================================================================
ALTER TABLE wycieczki ADD dataPrzyjazdu DATE AFTER dataWyjazdu