SELECT `gatunek`,`obraz` FROM `zwierzeta` WHERE `Gromady_id`= '4'
=======================================================================================================
SELECT `id`,`Gromady_id`,`wystepowanie` FROM `zwierzeta` WHERE `Gromady_id`='4' OR `Gromady_id`='5'
=============================================================================================================================
SELECT zwierzeta.gatunek,odzywianie.id,odzywianie.rodzaj FROM `zwierzeta` JOIN `odzywianie` WHERE zwierzeta.`Odzywianie_id` = odzywianie.id 
===============================================================================================================================================
ALTER TABLE `odzywianie` DROP `informacja` 
================================================